{
  "base_happiness": 70,
  "capture_rate": 45,
  "color": {
    "name": "red",
    "url": "https://pokeapi.co/api/v2/pokemon-color/8/"
  },
  "egg_groups": [
    {
      "name": "monster",
      "url": "https://pokeapi.co/api/v2/egg-group/1/"
    },
    {
      "name": "dragon",
      "url": "https://pokeapi.co/api/v2/egg-group/14/"
    }
  ],
  "evolution_chain": {
    "url": "https://pokeapi.co/api/v2/evolution-chain/2/"
  },
  "evolves_from_species": {
    "name": "charmander",
    "url": "https://pokeapi.co/api/v2/pokemon-species/4/"
  },
  "flavor_text_entries": [
    {
      "flavor_text": "When it swings\nits burning tail,\nit elevates the\ftemperature to\nunbearably high\nlevels.",
      "language": {
        "name": "en",
        "url": "https://pokeapi.co/api/v2/language/9/"
      },
      "version": {
        "name": "red",
        "url": "https://pokeapi.co/api/v2/version/1/"
      }
    },
    {
      "flavor_text": "When it swings\nits burning tail,\nit elevates the\ftemperature to\nunbearably high\nlevels.",
      "language": {
        "name": "en",
        "url": "https://pokeapi.co/api/v2/language/9/"
      },
      "version": {
        "name": "blue",
        "url": "https://pokeapi.co/api/v2/version/2/"
      }
    },
    {
      "flavor_text": "Tough fights could\nexcite this\nPOKéMON. When\fexcited, it may\nblow out bluish-\nwhite flames.",
      "language": {
        "name": "en",
        "url": "https://pokeapi.co/api/v2/language/9/"
      },
      "version": {
        "name": "yellow",
        "url": "https://pokeapi.co/api/v2/version/3/"
      }
    },
    {
      "flavor_text": "It is very hot­\nheaded by nature,\nso it constantly\fseeks opponents.\nIt calms down only\nwhen it wins.",
      "language": {
        "name": "en",
        "url": "https://pokeapi.co/api/v2/language/9/"
      },
      "version": {
        "name": "gold",
        "url": "https://pokeapi.co/api/v2/version/4/"
      }
    },
    {
      "flavor_text": "It has a barbaric\nnature. In battle,\nit whips its\ffiery tail around\nand slashes away\nwith sharp claws.",
      "language": {
        "name": "en",
        "url": "https://pokeapi.co/api/v2/language/9/"
      },
      "version": {
        "name": "silver",
        "url": "https://pokeapi.co/api/v2/version/5/"
      }
    },
    {
      "flavor_text": "If it becomes\nagitated during\nbattle, it spouts\fintense flames,\nincinerating its\nsurroundings.",
      "language": {
        "name": "en",
        "url": "https://pokeapi.co/api/v2/language/9/"
      },
      "version": {
        "name": "crystal",
        "url": "https://pokeapi.co/api/v2/version/6/"
      }
    },
    {
      "flavor_text": "CHARMELEON mercilessly destroys its\nfoes using its sharp claws.\nIf it encounters a strong foe, it turns\faggressive. In this excited state, the\nflame at the tip of its tail flares with a\nbluish white color.",
      "language": {
        "name": "en",
        "url": "https://pokeapi.co/api/v2/language/9/"
      },
      "version": {
        "name": "ruby",
        "url": "https://pokeapi.co/api/v2/version/7/"
      }
    },
    {
      "flavor_text": "CHARMELEON mercilessly destroys its\nfoes using its sharp claws.\nIf it encounters a strong foe, it turns\faggressive. In this excited state, the\nflame at the tip of its tail flares with a\nbluish white color.",
      "language": {
        "name": "en",
        "url": "https://pokeapi.co/api/v2/language/9/"
      },
      "version": {
        "name": "sapphire",
        "url": "https://pokeapi.co/api/v2/version/8/"
      }
    },
    {
      "flavor_text": "Without pity, its sharp claws destroy foes.\nIf it encounters a strong enemy, it\nbecomes agitated, and the flame on its\ntail flares with a bluish white color.",
      "language": {
        "name": "en",
        "url": "https://pokeapi.co/api/v2/language/9/"
      },
      "version": {
        "name": "emerald",
        "url": "https://pokeapi.co/api/v2/version/9/"
      }
    },
    {
      "flavor_text": "It lashes about with its tail to knock\ndown its foe. It then tears up the fallen\nopponent with sharp claws.",
      "language": {
        "name": "en",
        "url": "https://pokeapi.co/api/v2/language/9/"
      },
      "version": {
        "name": "firered",
        "url": "https://pokeapi.co/api/v2/version/10/"
      }
    },
    {
      "flavor_text": "When it swings its burning tail, it\nelevates the air temperature to \nunbearably high levels.",
      "language": {
        "name": "en",
        "url": "https://pokeapi.co/api/v2/language/9/"
      },
      "version": {
        "name": "leafgreen",
        "url": "https://pokeapi.co/api/v2/version/11/"
      }
    },
    {
      "flavor_text": "In the rocky mountains where\nCHARMELEON live, their fiery\ntails shine at night like stars.",
      "language": {
        "name": "en",
        "url": "https://pokeapi.co/api/v2/language/9/"
      },
      "version": {
        "name": "diamond",
        "url": "https://pokeapi.co/api/v2/version/12/"
      }
    },
    {
      "flavor_text": "In the rocky mountains where\nCHARMELEON live, their fiery\ntails shine at night like stars.",
      "language": {
        "name": "en",
        "url": "https://pokeapi.co/api/v2/language/9/"
      },
      "version": {
        "name": "pearl",
        "url": "https://pokeapi.co/api/v2/version/13/"
      }
    },
    {
      "flavor_text": "In the rocky mountains where\nCHARMELEON live, their fiery\ntails shine at night like stars.",
      "language": {
        "name": "en",
        "url": "https://pokeapi.co/api/v2/language/9/"
      },
      "version": {
        "name": "platinum",
        "url": "https://pokeapi.co/api/v2/version/14/"
      }
    },
    {
      "flavor_text": "It is very hotheaded by nature,\nso it constantly seeks opponents.\nIt calms down only when it wins.",
      "language": {
        "name": "en",
        "url": "https://pokeapi.co/api/v2/language/9/"
      },
      "version": {
        "name": "heartgold",
        "url": "https://pokeapi.co/api/v2/version/15/"
      }
    },
    {
      "flavor_text": "It has a barbaric nature. In battle,\nit whips its fiery tail around\nand slashes away with sharp claws.",
      "language": {
        "name": "en",
        "url": "https://pokeapi.co/api/v2/language/9/"
      },
      "version": {
        "name": "soulsilver",
        "url": "https://pokeapi.co/api/v2/version/16/"
      }
    },
    {
      "flavor_text": "La nuit, la queue ardente du Reptincel\nbrille comme une étoile dans son\nrepaire montagneux.",
      "language": {
        "name": "fr",
        "url": "https://pokeapi.co/api/v2/language/5/"
      },
      "version": {
        "name": "black",
        "url": "https://pokeapi.co/api/v2/version/17/"
      }
    },
    {
      "flavor_text": "In the rocky mountains where\nCharmeleon live, their fiery\ntails shine at night like stars.",
      "language": {
        "name": "en",
        "url": "https://pokeapi.co/api/v2/language/9/"
      },
      "version": {
        "name": "black",
        "url": "https://pokeapi.co/api/v2/version/17/"
      }
    },
    {
      "flavor_text": "La nuit, la queue ardente du Reptincel\nbrille comme une étoile dans son\nrepaire montagneux.",
      "language": {
        "name": "fr",
        "url": "https://pokeapi.co/api/v2/language/5/"
      },
      "version": {
        "name": "white",
        "url": "https://pokeapi.co/api/v2/version/18/"
      }
    },
    {
      "flavor_text": "In the rocky mountains where\nCharmeleon live, their fiery\ntails shine at night like stars.",
      "language": {
        "name": "en",
        "url": "https://pokeapi.co/api/v2/language/9/"
      },
      "version": {
        "name": "white",
        "url": "https://pokeapi.co/api/v2/version/18/"
      }
    },
    {
      "flavor_text": "In the rocky mountains where\nCharmeleon live, their fiery\ntails shine at night like stars.",
      "language": {
        "name": "en",
        "url": "https://pokeapi.co/api/v2/language/9/"
      },
      "version": {
        "name": "black-2",
        "url": "https://pokeapi.co/api/v2/version/21/"
      }
    },
    {
      "flavor_text": "In the rocky mountains where\nCharmeleon live, their fiery\ntails shine at night like stars.",
      "language": {
        "name": "en",
        "url": "https://pokeapi.co/api/v2/language/9/"
      },
      "version": {
        "name": "white-2",
        "url": "https://pokeapi.co/api/v2/version/22/"
      }
    },
    {
      "flavor_text": "しっぽを　ふりまわして　あいてを\nなぎたおし　するどい　ツメで\nズタズタに　ひきさいてしまう。",
      "language": {
        "name": "ja-Hrkt",
        "url": "https://pokeapi.co/api/v2/language/1/"
      },
      "version": {
        "name": "x",
        "url": "https://pokeapi.co/api/v2/version/23/"
      }
    },
    {
      "flavor_text": "꼬리를 휘둘러 상대를\n쓰러트리고 날카로운 발톱으로\n갈기갈기 찢어버린다.",
      "language": {
        "name": "ko",
        "url": "https://pokeapi.co/api/v2/language/3/"
      },
      "version": {
        "name": "x",
        "url": "https://pokeapi.co/api/v2/version/23/"
      }
    },
    {
      "flavor_text": "Il se sert de sa queue pour faire tomber ses\nadversaires. Une fois qu’ils sont au sol, il les lacère\nde ses griffes acérées.",
      "language": {
        "name": "fr",
        "url": "https://pokeapi.co/api/v2/language/5/"
      },
      "version": {
        "name": "x",
        "url": "https://pokeapi.co/api/v2/version/23/"
      }
    },
    {
      "flavor_text": "Es schlägt im Kampf mit seinem Schwanz nach\nseinen Gegnern. Anschließend zerfetzt es\ndie Gegner mit seinen scharfen Klauen.",
      "language": {
        "name": "de",
        "url": "https://pokeapi.co/api/v2/language/6/"
      },
      "version": {
        "name": "x",
        "url": "https://pokeapi.co/api/v2/version/23/"
      }
    },
    {
      "flavor_text": "Suele usar la cola para derribar a su rival. Cuando lo\ntira, se vale de sus afiladas garras para acabar con él.",
      "language": {
        "name": "es",
        "url": "https://pokeapi.co/api/v2/language/7/"
      },
      "version": {
        "name": "x",
        "url": "https://pokeapi.co/api/v2/version/23/"
      }
    },
    {
      "flavor_text": "Fa cadere a terra il nemico colpendolo con la coda,\nper poi finirlo con gli artigli affilati.",
      "language": {
        "name": "it",
        "url": "https://pokeapi.co/api/v2/language/8/"
      },
      "version": {
        "name": "x",
        "url": "https://pokeapi.co/api/v2/version/23/"
      }
    },
    {
      "flavor_text": "It lashes about with its tail to knock down its foe.\nIt then tears up the fallen opponent with\nsharp claws.",
      "language": {
        "name": "en",
        "url": "https://pokeapi.co/api/v2/language/9/"
      },
      "version": {
        "name": "x",
        "url": "https://pokeapi.co/api/v2/version/23/"
      }
    },
    {
      "flavor_text": "尻尾を　振り回して\n相手を　なぎ倒し　鋭い　ツメで\nズタズタに　ひきさいてしまう。",
      "language": {
        "name": "ja",
        "url": "https://pokeapi.co/api/v2/language/11/"
      },
      "version": {
        "name": "x",
        "url": "https://pokeapi.co/api/v2/version/23/"
      }
    },
    {
      "flavor_text": "もえる　しっぽを　ふりまわすと\nまわりの　おんどが　どんどん\nあがって　あいてを　くるしめる。",
      "language": {
        "name": "ja-Hrkt",
        "url": "https://pokeapi.co/api/v2/language/1/"
      },
      "version": {
        "name": "y",
        "url": "https://pokeapi.co/api/v2/version/24/"
      }
    },
    {
      "flavor_text": "불타는 꼬리를 휘두르면\n주위의 온도가 점점\n올라가 상대를 괴롭게 한다.",
      "language": {
        "name": "ko",
        "url": "https://pokeapi.co/api/v2/language/3/"
      },
      "version": {
        "name": "y",
        "url": "https://pokeapi.co/api/v2/version/24/"
      }
    },
    {
      "flavor_text": "En agitant sa queue, il peut élever la température à\nun niveau incroyable.",
      "language": {
        "name": "fr",
        "url": "https://pokeapi.co/api/v2/language/5/"
      },
      "version": {
        "name": "y",
        "url": "https://pokeapi.co/api/v2/version/24/"
      }
    },
    {
      "flavor_text": "Wenn Glutexo mit seinem Schwanz schwingt,\nsteigt die Temperatur ins Unermessliche.",
      "language": {
        "name": "de",
        "url": "https://pokeapi.co/api/v2/language/6/"
      },
      "version": {
        "name": "y",
        "url": "https://pokeapi.co/api/v2/version/24/"
      }
    },
    {
      "flavor_text": "Cuando balancea la ardiente cola, eleva la temperatura\na niveles muy altos.",
      "language": {
        "name": "es",
        "url": "https://pokeapi.co/api/v2/language/7/"
      },
      "version": {
        "name": "y",
        "url": "https://pokeapi.co/api/v2/version/24/"
      }
    },
    {
      "flavor_text": "Quando agita la sua coda infuocata porta la\ntemperatura a livelli insostenibili.",
      "language": {
        "name": "it",
        "url": "https://pokeapi.co/api/v2/language/8/"
      },
      "version": {
        "name": "y",
        "url": "https://pokeapi.co/api/v2/version/24/"
      }
    },
    {
      "flavor_text": "When it swings its burning tail, it elevates the air\ntemperature to unbearably high levels.",
      "language": {
        "name": "en",
        "url": "https://pokeapi.co/api/v2/language/9/"
      },
      "version": {
        "name": "y",
        "url": "https://pokeapi.co/api/v2/version/24/"
      }
    },
    {
      "flavor_text": "燃える　尻尾を　振り回すと\nまわりの　温度が　どんどん　上がって\n相手を　苦しめる。",
      "language": {
        "name": "ja",
        "url": "https://pokeapi.co/api/v2/language/11/"
      },
      "version": {
        "name": "y",
        "url": "https://pokeapi.co/api/v2/version/24/"
      }
    },
    {
      "flavor_text": "するどい　ツメで　ようしゃなく　たたきのめす。\nきょうてきと　むかいあうと　きぶんが　たかぶり\nしっぽの　ほのおが　あおじろく　もえあがる。",
      "language": {
        "name": "ja-Hrkt",
        "url": "https://pokeapi.co/api/v2/language/1/"
      },
      "version": {
        "name": "omega-ruby",
        "url": "https://pokeapi.co/api/v2/version/25/"
      }
    },
    {
      "flavor_text": "날카로운 발톱으로 봐주지 않고 때려눕힌다.\n강한 적을 만나면 기분이 고양되며\n꼬리의 불꽃이 푸르스름하게 불타오른다.",
      "language": {
        "name": "ko",
        "url": "https://pokeapi.co/api/v2/language/3/"
      },
      "version": {
        "name": "omega-ruby",
        "url": "https://pokeapi.co/api/v2/version/25/"
      }
    },
    {
      "flavor_text": "Reptincel lacère ses ennemis sans pitié grâce à ses griffes\nacérées. S’il rencontre un ennemi puissant, il devient agressif\net la flamme au bout de sa queue s’embrase et prend\nune couleur bleu clair.",
      "language": {
        "name": "fr",
        "url": "https://pokeapi.co/api/v2/language/5/"
      },
      "version": {
        "name": "omega-ruby",
        "url": "https://pokeapi.co/api/v2/version/25/"
      }
    },
    {
      "flavor_text": "Gnadenlos besiegt Glutexo seine Gegner mit seinen\nscharfen Klauen. Wenn es auf starke Gegner trifft,\nwird es wütend und die Flamme auf seiner Schweifspitze\nflackert in einem bläulichen Ton.",
      "language": {
        "name": "de",
        "url": "https://pokeapi.co/api/v2/language/6/"
      },
      "version": {
        "name": "omega-ruby",
        "url": "https://pokeapi.co/api/v2/version/25/"
      }
    },
    {
      "flavor_text": "Charmeleon no tiene reparo en acabar con su rival usando\nlas afiladas garras que tiene. Si su enemigo es fuerte, se\nvuelve agresivo, y la llama que tiene en el extremo de la cola\nempieza a arder con mayor intensidad tornándose azulada.",
      "language": {
        "name": "es",
        "url": "https://pokeapi.co/api/v2/language/7/"
      },
      "version": {
        "name": "omega-ruby",
        "url": "https://pokeapi.co/api/v2/version/25/"
      }
    },
    {
      "flavor_text": "Charmeleon distrugge il nemico senza pietà con i suoi\nartigli affilati. Quando incontra un avversario molto forte\ndiventa aggressivo. In questo stato di grande agitazione\nla fiamma della coda diventa di colore bianco bluastro.",
      "language": {
        "name": "it",
        "url": "https://pokeapi.co/api/v2/language/8/"
      },
      "version": {
        "name": "omega-ruby",
        "url": "https://pokeapi.co/api/v2/version/25/"
      }
    },
    {
      "flavor_text": "Charmeleon mercilessly destroys its foes using its sharp claws.\nIf it encounters a strong foe, it turns aggressive.\nIn this excited state, the flame at the tip of its tail flares with a\nbluish white color.",
      "language": {
        "name": "en",
        "url": "https://pokeapi.co/api/v2/language/9/"
      },
      "version": {
        "name": "omega-ruby",
        "url": "https://pokeapi.co/api/v2/version/25/"
      }
    },
    {
      "flavor_text": "鋭い　ツメで　ようしゃなく　たたきのめす。\n強敵と　向かい合うと　気分が　たかぶり\n尻尾の　炎が　青白く　燃えあがる。",
      "language": {
        "name": "ja",
        "url": "https://pokeapi.co/api/v2/language/11/"
      },
      "version": {
        "name": "omega-ruby",
        "url": "https://pokeapi.co/api/v2/version/25/"
      }
    },
    {
      "flavor_text": "するどい　ツメで　ようしゃなく　たたきのめす。\nきょうてきと　むかいあうと　きぶんが　たかぶり\nしっぽの　ほのおが　あおじろく　もえあがる。",
      "language": {
        "name": "ja-Hrkt",
        "url": "https://pokeapi.co/api/v2/language/1/"
      },
      "version": {
        "name": "alpha-sapphire",
        "url": "https://pokeapi.co/api/v2/version/26/"
      }
    },
    {
      "flavor_text": "날카로운 발톱으로 봐주지 않고 때려눕힌다.\n강한 적을 만나면 기분이 고양되며\n꼬리의 불꽃이 푸르스름하게 불타오른다.",
      "language": {
        "name": "ko",
        "url": "https://pokeapi.co/api/v2/language/3/"
      },
      "version": {
        "name": "alpha-sapphire",
        "url": "https://pokeapi.co/api/v2/version/26/"
      }
    },
    {
      "flavor_text": "Reptincel lacère ses ennemis sans pitié grâce à ses griffes\nacérées. S’il rencontre un ennemi puissant, il devient agressif\net la flamme au bout de sa queue s’embrase et prend\nune couleur bleu clair.",
      "language": {
        "name": "fr",
        "url": "https://pokeapi.co/api/v2/language/5/"
      },
      "version": {
        "name": "alpha-sapphire",
        "url": "https://pokeapi.co/api/v2/version/26/"
      }
    },
    {
      "flavor_text": "Glutexo attackiert seine Feinde mit aller Gewalt und unter\nEinsatz seiner scharfen Krallen. Trifft es auf starke Gegner,\nwird es wütend und die Flamme auf seiner Schweifspitze\nflackert in einem bläulichen Ton.",
      "language": {
        "name": "de",
        "url": "https://pokeapi.co/api/v2/language/6/"
      },
      "version": {
        "name": "alpha-sapphire",
        "url": "https://pokeapi.co/api/v2/version/26/"
      }
    },
    {
      "flavor_text": "Charmeleon no tiene reparo en acabar con su rival usando\nlas afiladas garras que tiene. Si su enemigo es fuerte, se\nvuelve agresivo, y la llama que tiene en el extremo de la cola\nempieza a arder con mayor intensidad tornándose azulada.",
      "language": {
        "name": "es",
        "url": "https://pokeapi.co/api/v2/language/7/"
      },
      "version": {
        "name": "alpha-sapphire",
        "url": "https://pokeapi.co/api/v2/version/26/"
      }
    },
    {
      "flavor_text": "Charmeleon distrugge il nemico senza pietà con i suoi\nartigli affilati. Quando incontra un avversario molto forte\ndiventa aggressivo. In questo stato di grande agitazione\nla fiamma della coda diventa di colore bianco bluastro.",
      "language": {
        "name": "it",
        "url": "https://pokeapi.co/api/v2/language/8/"
      },
      "version": {
        "name": "alpha-sapphire",
        "url": "https://pokeapi.co/api/v2/version/26/"
      }
    },
    {
      "flavor_text": "Charmeleon mercilessly destroys its foes using its sharp\nclaws. If it encounters a strong foe, it turns aggressive.\nIn this excited state, the flame at the tip of its tail flares with\na bluish white color.",
      "language": {
        "name": "en",
        "url": "https://pokeapi.co/api/v2/language/9/"
      },
      "version": {
        "name": "alpha-sapphire",
        "url": "https://pokeapi.co/api/v2/version/26/"
      }
    },
    {
      "flavor_text": "鋭い　ツメで　ようしゃなく　たたきのめす。\n強敵と　向かい合うと　気分が　たかぶり\n尻尾の　炎が　青白く　燃えあがる。",
      "language": {
        "name": "ja",
        "url": "https://pokeapi.co/api/v2/language/11/"
      },
      "version": {
        "name": "alpha-sapphire",
        "url": "https://pokeapi.co/api/v2/version/26/"
      }
    },
    {
      "flavor_text": "きょうてきと　たたかいつづけ\nエキサイトすると　あおじろい\nほのおを　はきだすことがある。",
      "language": {
        "name": "ja-Hrkt",
        "url": "https://pokeapi.co/api/v2/language/1/"
      },
      "version": {
        "name": "lets-go-pikachu",
        "url": "https://pokeapi.co/api/v2/version/31/"
      }
    },
    {
      "flavor_text": "강한 적과 싸움을 거듭하다\n흥분하면 푸르스름한\n불꽃을 뿜어낼 때가 있다.",
      "language": {
        "name": "ko",
        "url": "https://pokeapi.co/api/v2/language/3/"
      },
      "version": {
        "name": "lets-go-pikachu",
        "url": "https://pokeapi.co/api/v2/version/31/"
      }
    },
    {
      "flavor_text": "在與強敵戰鬥的過程中，\n如果情緒變得興奮起來，\n有時會噴出藍白色的火焰。",
      "language": {
        "name": "zh-Hant",
        "url": "https://pokeapi.co/api/v2/language/4/"
      },
      "version": {
        "name": "lets-go-pikachu",
        "url": "https://pokeapi.co/api/v2/version/31/"
      }
    },
    {
      "flavor_text": "Exalté quand il affronte des adversaires\npuissants, ce Pokémon en vient parfois\nà cracher des flammes bleutées.",
      "language": {
        "name": "fr",
        "url": "https://pokeapi.co/api/v2/language/5/"
      },
      "version": {
        "name": "lets-go-pikachu",
        "url": "https://pokeapi.co/api/v2/version/31/"
      }
    },
    {
      "flavor_text": "Kämpft es länger gegen starke Gegner, so gerät\nes in Aufregung und spuckt manchmal gleißend\nhelle, bläuliche Flammen.",
      "language": {
        "name": "de",
        "url": "https://pokeapi.co/api/v2/language/6/"
      },
      "version": {
        "name": "lets-go-pikachu",
        "url": "https://pokeapi.co/api/v2/version/31/"
      }
    },
    {
      "flavor_text": "Librar combates intensos lo entusiasma tanto\nque en ocasiones lanza llamas de tono blanco\nazulado.",
      "language": {
        "name": "es",
        "url": "https://pokeapi.co/api/v2/language/7/"
      },
      "version": {
        "name": "lets-go-pikachu",
        "url": "https://pokeapi.co/api/v2/version/31/"
      }
    },
    {
      "flavor_text": "Si infervora durante le lotte più dure e talvolta\nsputa fiamme bluastre.",
      "language": {
        "name": "it",
        "url": "https://pokeapi.co/api/v2/language/8/"
      },
      "version": {
        "name": "lets-go-pikachu",
        "url": "https://pokeapi.co/api/v2/version/31/"
      }
    },
    {
      "flavor_text": "Tough fights could excite this Pokémon. When\nexcited, it may breathe out bluish-white flames.",
      "language": {
        "name": "en",
        "url": "https://pokeapi.co/api/v2/language/9/"
      },
      "version": {
        "name": "lets-go-pikachu",
        "url": "https://pokeapi.co/api/v2/version/31/"
      }
    },
    {
      "flavor_text": "強敵と　戦いつづけ\nエキサイトすると　青白い\n炎を　吐き出すことがある。",
      "language": {
        "name": "ja",
        "url": "https://pokeapi.co/api/v2/language/11/"
      },
      "version": {
        "name": "lets-go-pikachu",
        "url": "https://pokeapi.co/api/v2/version/31/"
      }
    },
    {
      "flavor_text": "在与强敌战斗的过程中，\n如果情绪变得兴奋起来，\n有时会喷出青白色的烈火。",
      "language": {
        "name": "zh-Hans",
        "url": "https://pokeapi.co/api/v2/language/12/"
      },
      "version": {
        "name": "lets-go-pikachu",
        "url": "https://pokeapi.co/api/v2/version/31/"
      }
    },
    {
      "flavor_text": "きょうてきと　たたかいつづけ\nエキサイトすると　あおじろい\nほのおを　はきだすことがある。",
      "language": {
        "name": "ja-Hrkt",
        "url": "https://pokeapi.co/api/v2/language/1/"
      },
      "version": {
        "name": "lets-go-eevee",
        "url": "https://pokeapi.co/api/v2/version/32/"
      }
    },
    {
      "flavor_text": "강한 적과 싸움을 거듭하다\n흥분하면 푸르스름한\n불꽃을 뿜어낼 때가 있다.",
      "language": {
        "name": "ko",
        "url": "https://pokeapi.co/api/v2/language/3/"
      },
      "version": {
        "name": "lets-go-eevee",
        "url": "https://pokeapi.co/api/v2/version/32/"
      }
    },
    {
      "flavor_text": "在與強敵戰鬥的過程中，\n如果情緒變得興奮起來，\n有時會噴出藍白色的火焰。",
      "language": {
        "name": "zh-Hant",
        "url": "https://pokeapi.co/api/v2/language/4/"
      },
      "version": {
        "name": "lets-go-eevee",
        "url": "https://pokeapi.co/api/v2/version/32/"
      }
    },
    {
      "flavor_text": "Exalté quand il affronte des adversaires\npuissants, ce Pokémon en vient parfois\nà cracher des flammes bleutées.",
      "language": {
        "name": "fr",
        "url": "https://pokeapi.co/api/v2/language/5/"
      },
      "version": {
        "name": "lets-go-eevee",
        "url": "https://pokeapi.co/api/v2/version/32/"
      }
    },
    {
      "flavor_text": "Kämpft es länger gegen starke Gegner, so gerät\nes in Aufregung und spuckt manchmal gleißend\nhelle, bläuliche Flammen.",
      "language": {
        "name": "de",
        "url": "https://pokeapi.co/api/v2/language/6/"
      },
      "version": {
        "name": "lets-go-eevee",
        "url": "https://pokeapi.co/api/v2/version/32/"
      }
    },
    {
      "flavor_text": "Librar combates intensos lo entusiasma tanto\nque en ocasiones lanza llamas de tono blanco\nazulado.",
      "language": {
        "name": "es",
        "url": "https://pokeapi.co/api/v2/language/7/"
      },
      "version": {
        "name": "lets-go-eevee",
        "url": "https://pokeapi.co/api/v2/version/32/"
      }
    },
    {
      "flavor_text": "Si infervora durante le lotte più dure e talvolta\nsputa fiamme bluastre.",
      "language": {
        "name": "it",
        "url": "https://pokeapi.co/api/v2/language/8/"
      },
      "version": {
        "name": "lets-go-eevee",
        "url": "https://pokeapi.co/api/v2/version/32/"
      }
    },
    {
      "flavor_text": "Tough fights could excite this Pokémon. When\nexcited, it may breathe out bluish-white flames.",
      "language": {
        "name": "en",
        "url": "https://pokeapi.co/api/v2/language/9/"
      },
      "version": {
        "name": "lets-go-eevee",
        "url": "https://pokeapi.co/api/v2/version/32/"
      }
    },
    {
      "flavor_text": "強敵と　戦いつづけ\nエキサイトすると　青白い\n炎を　吐き出すことがある。",
      "language": {
        "name": "ja",
        "url": "https://pokeapi.co/api/v2/language/11/"
      },
      "version": {
        "name": "lets-go-eevee",
        "url": "https://pokeapi.co/api/v2/version/32/"
      }
    },
    {
      "flavor_text": "在与强敌战斗的过程中，\n如果情绪变得兴奋起来，\n有时会喷出青白色的烈火。",
      "language": {
        "name": "zh-Hans",
        "url": "https://pokeapi.co/api/v2/language/12/"
      },
      "version": {
        "name": "lets-go-eevee",
        "url": "https://pokeapi.co/api/v2/version/32/"
      }
    },
    {
      "flavor_text": "もえる　しっぽを　ふりまわし\nするどい　ツメで　あいてを\nきりさく　あらあらしい　せいかく。",
      "language": {
        "name": "ja-Hrkt",
        "url": "https://pokeapi.co/api/v2/language/1/"
      },
      "version": {
        "name": "sword",
        "url": "https://pokeapi.co/api/v2/version/33/"
      }
    },
    {
      "flavor_text": "불타는 꼬리를 휘두르며\n날카로운 발톱으로 상대를\n베어 가르는 몹시 거친 성격이다.",
      "language": {
        "name": "ko",
        "url": "https://pokeapi.co/api/v2/language/3/"
      },
      "version": {
        "name": "sword",
        "url": "https://pokeapi.co/api/v2/version/33/"
      }
    },
    {
      "flavor_text": "揮動燃燒著火焰的尾巴，\n用鋒利的爪子撕裂對手。\n性情十分粗暴。",
      "language": {
        "name": "zh-Hant",
        "url": "https://pokeapi.co/api/v2/language/4/"
      },
      "version": {
        "name": "sword",
        "url": "https://pokeapi.co/api/v2/version/33/"
      }
    },
    {
      "flavor_text": "Il est très brutal. En combat, il se sert de\nses griffes acérées et de sa queue enflammée\npour mettre en pièces ses adversaires.",
      "language": {
        "name": "fr",
        "url": "https://pokeapi.co/api/v2/language/5/"
      },
      "version": {
        "name": "sword",
        "url": "https://pokeapi.co/api/v2/version/33/"
      }
    },
    {
      "flavor_text": "Es ist brutal veranlagt. Im Kampf schlägt es mit\nseinem brennenden Schweif um sich und schlitzt\nGegner mit seinen scharfen Klauen auf.",
      "language": {
        "name": "de",
        "url": "https://pokeapi.co/api/v2/language/6/"
      },
      "version": {
        "name": "sword",
        "url": "https://pokeapi.co/api/v2/version/33/"
      }
    },
    {
      "flavor_text": "Este Pokémon de naturaleza agresiva ataca en\ncombate con su cola llameante y hace trizas al\nrival con sus afiladas garras.",
      "language": {
        "name": "es",
        "url": "https://pokeapi.co/api/v2/language/7/"
      },
      "version": {
        "name": "sword",
        "url": "https://pokeapi.co/api/v2/version/33/"
      }
    },
    {
      "flavor_text": "Ha un’indole feroce. Usa la coda fiammeggiante\ncome una frusta e lacera l’avversario con gli\nartigli affilati.",
      "language": {
        "name": "it",
        "url": "https://pokeapi.co/api/v2/language/8/"
      },
      "version": {
        "name": "sword",
        "url": "https://pokeapi.co/api/v2/version/33/"
      }
    },
    {
      "flavor_text": "It has a barbaric nature. In battle, it whips its\nfiery tail around and slashes away with sharp claws.",
      "language": {
        "name": "en",
        "url": "https://pokeapi.co/api/v2/language/9/"
      },
      "version": {
        "name": "sword",
        "url": "https://pokeapi.co/api/v2/version/33/"
      }
    },
    {
      "flavor_text": "燃える　しっぽを　振りまわし\nするどい　ツメで　相手を\n切り裂く　荒々しい　性格。",
      "language": {
        "name": "ja",
        "url": "https://pokeapi.co/api/v2/language/11/"
      },
      "version": {
        "name": "sword",
        "url": "https://pokeapi.co/api/v2/version/33/"
      }
    },
    {
      "flavor_text": "挥动燃烧着火焰的尾巴，\n用锋利的爪子撕裂对手。\n性格十分粗暴。",
      "language": {
        "name": "zh-Hans",
        "url": "https://pokeapi.co/api/v2/language/12/"
      },
      "version": {
        "name": "sword",
        "url": "https://pokeapi.co/api/v2/version/33/"
      }
    },
    {
      "flavor_text": "たたかいで　きもちが　たかぶると\nしゃくねつの　ほのおを　ふきながら\nあたりを　もやしてまわる。",
      "language": {
        "name": "ja-Hrkt",
        "url": "https://pokeapi.co/api/v2/language/1/"
      },
      "version": {
        "name": "shield",
        "url": "https://pokeapi.co/api/v2/version/34/"
      }
    },
    {
      "flavor_text": "싸움으로 기분이 고조되면\n작열하는 불꽃을 뿜으며\n주변을 태워버린다.",
      "language": {
        "name": "ko",
        "url": "https://pokeapi.co/api/v2/language/3/"
      },
      "version": {
        "name": "shield",
        "url": "https://pokeapi.co/api/v2/version/34/"
      }
    },
    {
      "flavor_text": "如果牠在戰鬥中亢奮起來，\n就會噴出灼熱的火焰，\n把周圍的東西燒得一乾二淨。",
      "language": {
        "name": "zh-Hant",
        "url": "https://pokeapi.co/api/v2/language/4/"
      },
      "version": {
        "name": "shield",
        "url": "https://pokeapi.co/api/v2/version/34/"
      }
    },
    {
      "flavor_text": "S’il s’excite pendant un combat, il crache\nde grandes flammes, brûlant tout ce qui\nse trouve aux alentours.",
      "language": {
        "name": "fr",
        "url": "https://pokeapi.co/api/v2/language/5/"
      },
      "version": {
        "name": "shield",
        "url": "https://pokeapi.co/api/v2/version/34/"
      }
    },
    {
      "flavor_text": "Steigert es sich in einen Kampf hinein, spuckt es\nFlammen, die alles in seiner Umgebung\nniederbrennen.",
      "language": {
        "name": "de",
        "url": "https://pokeapi.co/api/v2/language/6/"
      },
      "version": {
        "name": "shield",
        "url": "https://pokeapi.co/api/v2/version/34/"
      }
    },
    {
      "flavor_text": "Si se exalta en combate, expulsa intensas\nllamaradas que incineran todo a su alrededor.",
      "language": {
        "name": "es",
        "url": "https://pokeapi.co/api/v2/language/7/"
      },
      "version": {
        "name": "shield",
        "url": "https://pokeapi.co/api/v2/version/34/"
      }
    },
    {
      "flavor_text": "Se s’infervora nella lotta, sputa potenti fiamme\nche inceneriscono l’area circostante.",
      "language": {
        "name": "it",
        "url": "https://pokeapi.co/api/v2/language/8/"
      },
      "version": {
        "name": "shield",
        "url": "https://pokeapi.co/api/v2/version/34/"
      }
    },
    {
      "flavor_text": "If it becomes agitated during battle, it spouts\nintense flames, incinerating its surroundings.",
      "language": {
        "name": "en",
        "url": "https://pokeapi.co/api/v2/language/9/"
      },
      "version": {
        "name": "shield",
        "url": "https://pokeapi.co/api/v2/version/34/"
      }
    },
    {
      "flavor_text": "戦いで　気持ちが　たかぶると\n灼熱の　炎を　吹きながら\nあたりを　燃やしてまわる。",
      "language": {
        "name": "ja",
        "url": "https://pokeapi.co/api/v2/language/11/"
      },
      "version": {
        "name": "shield",
        "url": "https://pokeapi.co/api/v2/version/34/"
      }
    },
    {
      "flavor_text": "如果它在战斗中亢奋起来，\n就会喷出灼热的火焰，\n把周围的东西烧得一干二净。",
      "language": {
        "name": "zh-Hans",
        "url": "https://pokeapi.co/api/v2/language/12/"
      },
      "version": {
        "name": "shield",
        "url": "https://pokeapi.co/api/v2/version/34/"
      }
    }
  ],
  "form_descriptions": [],
  "forms_switchable": false,
  "gender_rate": 1,
  "genera": [
    {
      "genus": "かえんポケモン",
      "language": {
        "name": "ja-Hrkt",
        "url": "https://pokeapi.co/api/v2/language/1/"
      }
    },
    {
      "genus": "화염포켓몬",
      "language": {
        "name": "ko",
        "url": "https://pokeapi.co/api/v2/language/3/"
      }
    },
    {
      "genus": "火焰寶可夢",
      "language": {
        "name": "zh-Hant",
        "url": "https://pokeapi.co/api/v2/language/4/"
      }
    },
    {
      "genus": "Pokémon Flamme",
      "language": {
        "name": "fr",
        "url": "https://pokeapi.co/api/v2/language/5/"
      }
    },
    {
      "genus": "Flamme",
      "language": {
        "name": "de",
        "url": "https://pokeapi.co/api/v2/language/6/"
      }
    },
    {
      "genus": "Pokémon Llama",
      "language": {
        "name": "es",
        "url": "https://pokeapi.co/api/v2/language/7/"
      }
    },
    {
      "genus": "Pokémon Fiamma",
      "language": {
        "name": "it",
        "url": "https://pokeapi.co/api/v2/language/8/"
      }
    },
    {
      "genus": "Flame Pokémon",
      "language": {
        "name": "en",
        "url": "https://pokeapi.co/api/v2/language/9/"
      }
    },
    {
      "genus": "かえんポケモン",
      "language": {
        "name": "ja",
        "url": "https://pokeapi.co/api/v2/language/11/"
      }
    },
    {
      "genus": "火焰宝可梦",
      "language": {
        "name": "zh-Hans",
        "url": "https://pokeapi.co/api/v2/language/12/"
      }
    }
  ],
  "generation": {
    "name": "generation-i",
    "url": "https://pokeapi.co/api/v2/generation/1/"
  },
  "growth_rate": {
    "name": "medium-slow",
    "url": "https://pokeapi.co/api/v2/growth-rate/4/"
  },
  "habitat": {
    "name": "mountain",
    "url": "https://pokeapi.co/api/v2/pokemon-habitat/4/"
  },
  "has_gender_differences": false,
  "hatch_counter": 20,
  "id": 5,
  "is_baby": false,
  "is_legendary": false,
  "is_mythical": false,
  "name": "charmeleon",
  "names": [
    {
      "language": {
        "name": "ja-Hrkt",
        "url": "https://pokeapi.co/api/v2/language/1/"
      },
      "name": "リザード"
    },
    {
      "language": {
        "name": "roomaji",
        "url": "https://pokeapi.co/api/v2/language/2/"
      },
      "name": "Lizardo"
    },
    {
      "language": {
        "name": "ko",
        "url": "https://pokeapi.co/api/v2/language/3/"
      },
      "name": "리자드"
    },
    {
      "language": {
        "name": "zh-Hant",
        "url": "https://pokeapi.co/api/v2/language/4/"
      },
      "name": "火恐龍"
    },
    {
      "language": {
        "name": "fr",
        "url": "https://pokeapi.co/api/v2/language/5/"
      },
      "name": "Reptincel"
    },
    {
      "language": {
        "name": "de",
        "url": "https://pokeapi.co/api/v2/language/6/"
      },
      "name": "Glutexo"
    },
    {
      "language": {
        "name": "es",
        "url": "https://pokeapi.co/api/v2/language/7/"
      },
      "name": "Charmeleon"
    },
    {
      "language": {
        "name": "it",
        "url": "https://pokeapi.co/api/v2/language/8/"
      },
      "name": "Charmeleon"
    },
    {
      "language": {
        "name": "en",
        "url": "https://pokeapi.co/api/v2/language/9/"
      },
      "name": "Charmeleon"
    },
    {
      "language": {
        "name": "ja",
        "url": "https://pokeapi.co/api/v2/language/11/"
      },
      "name": "リザード"
    },
    {
      "language": {
        "name": "zh-Hans",
        "url": "https://pokeapi.co/api/v2/language/12/"
      },
      "name": "火恐龙"
    }
  ],
  "order": 5,
  "pal_park_encounters": [
    {
      "area": {
        "name": "field",
        "url": "https://pokeapi.co/api/v2/pal-park-area/2/"
      },
      "base_score": 80,
      "rate": 10
    }
  ],
  "pokedex_numbers": [
    {
      "entry_number": 5,
      "pokedex": {
        "name": "national",
        "url": "https://pokeapi.co/api/v2/pokedex/1/"
      }
    },
    {
      "entry_number": 5,
      "pokedex": {
        "name": "kanto",
        "url": "https://pokeapi.co/api/v2/pokedex/2/"
      }
    },
    {
      "entry_number": 230,
      "pokedex": {
        "name": "original-johto",
        "url": "https://pokeapi.co/api/v2/pokedex/3/"
      }
    },
    {
      "entry_number": 235,
      "pokedex": {
        "name": "updated-johto",
        "url": "https://pokeapi.co/api/v2/pokedex/7/"
      }
    },
    {
      "entry_number": 110,
      "pokedex": {
        "name": "conquest-gallery",
        "url": "https://pokeapi.co/api/v2/pokedex/11/"
      }
    },
    {
      "entry_number": 84,
      "pokedex": {
        "name": "kalos-central",
        "url": "https://pokeapi.co/api/v2/pokedex/12/"
      }
    },
    {
      "entry_number": 379,
      "pokedex": {
        "name": "galar",
        "url": "https://pokeapi.co/api/v2/pokedex/27/"
      }
    },
    {
      "entry_number": 5,
      "pokedex": {
        "name": "updated-kanto",
        "url": "https://pokeapi.co/api/v2/pokedex/26/"
      }
    }
  ],
  "shape": {
    "name": "upright",
    "url": "https://pokeapi.co/api/v2/pokemon-shape/6/"
  },
  "varieties": [
    {
      "is_default": true,
      "pokemon": {
        "name": "charmeleon",
        "url": "https://pokeapi.co/api/v2/pokemon/5/"
      }
    }
  ]
}
